<?xml version="1.0" encoding="UTF-8" standalone="no"?>
<svg
   xmlns:dc="http://purl.org/dc/elements/1.1/"
   xmlns:cc="http://creativecommons.org/ns#"
   xmlns:rdf="http://www.w3.org/1999/02/22-rdf-syntax-ns#"
   xmlns:svg="http://www.w3.org/2000/svg"
   xmlns="http://www.w3.org/2000/svg"
   xmlns:sodipodi="http://sodipodi.sourceforge.net/DTD/sodipodi-0.dtd"
   xmlns:inkscape="http://www.inkscape.org/namespaces/inkscape"
   inkscape:version="1.0.1 (3bc2e813f5, 2020-09-07)"
   sodipodi:docname="lpe-connector-symbolic.svg"
   viewBox="0 0 16 16"
   height="16"
   width="16"
   id="svg1"
   version="1.1">
  <style
     id="s0">.success { fill: #009909; }
.warning { fill: #FF1990; }
.error { fill: #00AAFF; }
</style>
  <style
     id="s2"> 
     @import '../../highlights.css'; 
  </style>
  <metadata
     id="metadata1678">
    <rdf:RDF>
      <cc:Work
         rdf:about="">
        <dc:format>image/svg+xml</dc:format>
        <dc:type
           rdf:resource="http://purl.org/dc/dcmitype/StillImage" />
        <dc:title></dc:title>
      </cc:Work>
    </rdf:RDF>
  </metadata>
  <defs
     id="defs1676">
    <inkscape:path-effect
       effect="join_type"
       id="path-effect876"
       is_visible="true"
       lpeversion="1"
       linecap_type="butt"
       line_width="1"
       linejoin_type="extrp_arc"
       miter_limit="100"
       attempt_force_join="true" />
    <inkscape:path-effect
       effect="join_type"
       id="path-effect874"
       is_visible="true"
       lpeversion="1"
       linecap_type="butt"
       line_width="1"
       linejoin_type="round"
       miter_limit="100"
       attempt_force_join="true" />
    <inkscape:path-effect
       effect="join_type"
       id="path-effect872"
       is_visible="true"
       lpeversion="1"
       linecap_type="butt"
       line_width="1"
       linejoin_type="miter"
       miter_limit="100"
       attempt_force_join="true" />
    <inkscape:path-effect
       hide_knots="false"
       only_selected="true"
       apply_with_radius="true"
       apply_no_radius="true"
       use_knot_distance="false"
       flexible="false"
       chamfer_steps="1"
       radius="0"
       mode="F"
       method="auto"
       unit="px"
       satellites_param="F,0,0,1,0,2,0,1 @ F,0,0,1,0,2,0,1 @ F,0,0,1,0,2,0,1 @ F,0,0,1,0,2,0,1 | F,0,1,1,0,0,0,1 @ F,0,1,1,0,0,0,1 @ F,0,1,1,0,0,0,1 @ F,0,1,1,0,0,0,1"
       is_visible="true"
       id="path-effect957"
       effect="fillet_chamfer" />
    <inkscape:path-effect
       attempt_force_join="true"
       miter_limit="100"
       linejoin_type="round"
       line_width="2.5"
       linecap_type="round"
       is_visible="true"
       id="path-effect4438"
       effect="join_type" />
  </defs>
  <sodipodi:namedview
     inkscape:snap-global="true"
     inkscape:document-rotation="0"
     inkscape:current-layer="g0"
     inkscape:window-maximized="1"
     inkscape:window-y="-8"
     inkscape:window-x="54"
     inkscape:window-height="1177"
     inkscape:window-width="1858"
     inkscape:cy="2.2733705"
     inkscape:cx="16.885127"
     inkscape:zoom="22.4"
     showgrid="false"
     id="namedview"
     guidetolerance="10"
     gridtolerance="10"
     objecttolerance="10"
     inkscape:snap-bbox="false"
     inkscape:bbox-paths="true"
     inkscape:bbox-nodes="true"
     inkscape:snap-nodes="true"
     inkscape:showpageshadow="false">
    <inkscape:grid
       id="grid"
       type="xygrid" />
  </sodipodi:namedview>
  <g
     inkscape:label="draw-rectangle"
     id="g0">
    <path
       id="background"
       d="M 0,0 H 16 V 16 H 0 Z"
       style="opacity:0"
       inkscape:connector-curvature="0" />
    <g
       id="g904"
       transform="translate(55.982143)">
      <path
         style="fill-rule:nonzero;stroke:none;stroke-width:1px;stroke-linecap:butt;stroke-linejoin:miter;stroke-opacity:1"
         d="M 12.949874,10.994926 11.535579,11 C 8.4448823,11 8.4447484,3 4.465091,3.000003 L 3.0017345,2.9949267 2.9982655,3.9949207 4.4633565,4 c 3.0918951,0 3.0917612,8 7.0740155,7.999997 l 1.416088,-0.0051 z"
         id="path902"
         sodipodi:nodetypes="cccc"
         inkscape:path-effect="#path-effect874"
         inkscape:original-d="M 12.951667,11.494923 11.535579,11.5 C 8,11.5 8,3.5 4.4633565,3.5 L 3,3.4949237"
         class="error" />
    </g>
    <g
       id="g896"
       transform="translate(-0.05701687)">
      <path
         style="fill-rule:nonzero;stroke:none;stroke-width:1px;stroke-linecap:butt;stroke-linejoin:miter;stroke-opacity:1"
         d="m 10.943746,10.015446 -0.40996,0.0051 c -3.0338435,0 -1.0823275,-5.9999995 -5.1150525,-5.9999692 l -0.4633565,-0.0051 -0.011006,0.9999394 0.4688595,0.00513 c 3.035059,0 1.083241,5.9999995 5.1266835,5.9999615 l 0.416088,-0.0051 z"
         id="path892"
         sodipodi:nodetypes="cccc"
         inkscape:path-effect="#path-effect874"
         inkscape:original-d="m 10.949874,10.515408 -0.416088,0.0051 c -3.535579,0 -1.583912,-5.9999995 -5.1205555,-5.9999995 l -0.4633565,-0.0051"
         class="error" />
    </g>
    <circle
       style="fill:#000000;stroke-width:3.19471"
       id="circle906"
       cx="69.48214"
       cy="11.5"
       r="1.5" />
    <path
       id="circle898"
       style="fill:#000000;stroke-width:3.19471"
       d="m 14.892857,10.520485 c 0,0.828428 -0.671573,1.5 -1.5,1.5 -0.828427,0 -1.5,-0.671572 -1.5,-1.5 0,-0.8284266 0.671573,-1.4999995 1.5,-1.4999995 0.828427,0 1.5,0.6715729 1.5,1.4999995 z"
       sodipodi:nodetypes="sssss" />
    <g
       id="g870"
       transform="translate(18.998266)">
      <path
         style="fill-rule:nonzero;stroke:none;stroke-width:1px;stroke-linecap:butt;stroke-linejoin:miter;stroke-opacity:1"
         d="M 13.761535,10.994926 12.34724,11 C 8.7366463,11 9.223201,8.3605614 8.3423072,5.7064057 8.1322113,5.0733813 7.8303117,4.4573545 7.3242821,3.9713746 6.6775432,3.3502603 5.7633564,3 4.465091,3.000003 L 3.0017345,2.9949267 2.9982655,3.9949207 4.4633565,4 C 6.170023,4 6.8462315,4.6897742 7.2460585,5.6291313 7.9108836,7.1910775 7.7997649,9.6752577 9.3334045,11.041358 10.023801,11.656333 10.983263,12 12.349033,11.999997 l 1.416088,-0.0051 z"
         id="path864"
         sodipodi:nodetypes="cccc"
         inkscape:path-effect="#path-effect874"
         inkscape:original-d="M 13.763328,11.494923 12.34724,11.5 C 6,11.5 10.463356,3.5 4.4633565,3.5 L 3,3.4949237"
         class="error" />
      <path
         style="fill-rule:nonzero;stroke:none;stroke-width:1px;stroke-linecap:butt;stroke-linejoin:miter;stroke-opacity:1"
         d="m 11.993687,9.8484771 2,1.9999999 0,-0.707106 -2,2 0.707106,0.707106 2.353554,-2.353553 -2.353554,-2.3535537 z"
         id="path866"
         sodipodi:nodetypes="ccc"
         inkscape:path-effect="#path-effect876"
         inkscape:original-d="m 12.34724,9.4949237 2,2.0000003 -2,2"
         class="error" />
    </g>
    <circle
       style="fill:#000000;stroke-width:3.19471"
       id="circle908"
       cx="58.482143"
       cy="3.5"
       r="1.5" />
    <path
       id="circle884"
       style="fill:#000000;stroke-width:3.19471"
       d="m 3.9429821,4.5204855 c 0,0.8284271 -0.671573,1.5 -1.5,1.5 -0.828427,0 -1.49999997,-0.6715729 -1.49999997,-1.5 0,-0.8284271 0.67157297,-1.5 1.49999997,-1.5 0.828427,0 1.5,0.6715729 1.5,1.5 z"
       sodipodi:nodetypes="sssss" />
    <circle
       style="fill:#000000;stroke-width:3.19471"
       id="path862"
       cx="21.498266"
       cy="3.5"
       r="1.5" />
  </g>
</svg>
